

{
  "results": [
    {
      "vote_count": 576,
      "id": 384018,
      "video": false,
      "vote_average": 6.5,
      "title": "Fast & Furious Presents: Hobbs & Shaw",
      "popularity": 456.135,
      "poster_path": "\/keym7MPn1icW1wWfzMnW3HeuzWU.jpg",
      "original_language": "en",
      "original_title": "Fast & Furious Presents: Hobbs & Shaw",
      "genre_ids": [
        28
      ],
      "backdrop_path": "\/hpgda6P9GutvdkDX5MUJ92QG9aj.jpg",
      "adult": false,
      "overview": "A spinoff of The Fate of the Furious, focusing on Johnson's US Diplomatic Security Agent Luke Hobbs forming an unlikely alliance with Statham's Deckard Shaw.",
      "release_date": "2019-08-01"
    },
    {
      "vote_count": 1739,
      "id": 420818,
      "video": false,
      "vote_average": 7.1,
      "title": "The Lion King",
      "popularity": 265.913,
      "poster_path": "\/2bXbqYdUdNVa8VIWXVfclP2ICtT.jpg",
      "original_language": "en",
      "original_title": "The Lion King",
      "genre_ids": [
        12,
        16,
        10751,
        18,
        28
      ],
      "backdrop_path": "\/1TUg5pO1VZ4B0Q1amk3OlXvlpXV.jpg",
      "adult": false,
      "overview": "Simba idolises his father, King Mufasa, and takes to heart his own royal destiny. But not everyone in the kingdom celebrates the new cub's arrival. Scar, Mufasa's brother\u2014and former heir to the throne\u2014has plans of his own. The battle for Pride Rock is ravaged with betrayal, tragedy and drama, ultimately resulting in Simba's exile. With help from a curious pair of newfound friends, Simba will have to figure out how to grow up and take back what is rightfully his.",
      "release_date": "2019-07-12"
    },
    {
      "vote_count": 270,
      "id": 466272,
      "video": false,
      "vote_average": 7.6,
      "title": "Once Upon a Time in Hollywood",
      "popularity": 158.833,
      "poster_path": "\/8j58iEBw9pOXFD2L0nt0ZXeHviB.jpg",
      "original_language": "en",
      "original_title": "Once Upon a Time in Hollywood",
      "genre_ids": [
        18,
        35,
        28,
        80,
        37
      ],
      "backdrop_path": "\/b82nVVhYNRgtsTFV1jkdDwe6LJZ.jpg",
      "adult": false,
      "overview": "A faded television actor and his stunt double strive to achieve fame and success in the film industry during the final years of Hollywood's Golden Age in 1969 Los Angeles.",
      "release_date": "2019-07-25"
    },
    {
      "vote_count": 60,
      "id": 417384,
      "video": false,
      "vote_average": 6.7,
      "title": "Scary Stories to Tell in the Dark",
      "popularity": 95.704,
      "poster_path": "\/kNjEmQGBm9cYqTB03r6yECozQyW.jpg",
      "original_language": "en",
      "original_title": "Scary Stories to Tell in the Dark",
      "genre_ids": [
        27,
        14
      ],
      "backdrop_path": "\/spCU6e6opWCmA3Q0SdKhsMqo5OI.jpg",
      "adult": false,
      "overview": "The shadow of the Bellows family has loomed large in the small town of Mill Valley for generations. It's in a mansion that young Sarah Bellows turns her tortured life and horrible secrets into a series of scary stories. These terrifying tales soon have a way of becoming all too real for a group of unsuspecting teens who stumble upon Sarah's spooky home.",
      "release_date": "2019-08-08"
    },
    {
      "vote_count": 13,
      "id": 571627,
      "video": false,
      "vote_average": 3,
      "title": "The Divine Fury",
      "popularity": 88.338,
      "poster_path": "\/9Z2qT9iZYLzzsCSYu7A4SEQsKX0.jpg",
      "original_language": "ko",
      "original_title": "\uc0ac\uc790",
      "genre_ids": [
        28,
        27,
        9648
      ],
      "backdrop_path": "\/4MDYpCwqSVO5RcTiZ4GEfePzDdl.jpg",
      "adult": false,
      "overview": "Yong-hu, a world champion martial artist who believes in no God, only himself, suddenly develops stigmata on his palms. Visiting a church in hopes of healing the stigmata, he ends up saving Father Ahn, who falls into danger while performing an exorcism. In this way he learns of the power of the stigmata. As time passes Yong-hu accepts his new calling and begins saving people who are possessed by demons, but then he must prepare for a final confrontation with the evil Jisin, who ensnares people with the power of the devil.",
      "release_date": "2019-07-31"
    },
    {
      "vote_count": 24,
      "id": 499701,
      "video": false,
      "vote_average": 6.4,
      "title": "Dora and the Lost City of Gold",
      "popularity": 81.304,
      "poster_path": "\/xvYCZ740XvngXK0FNeSNVTJJJ5v.jpg",
      "original_language": "en",
      "original_title": "Dora and the Lost City of Gold",
      "genre_ids": [
        12,
        35,
        10751
      ],
      "backdrop_path": "\/843PwG97xLcz7TUW8tKDNrOc2sj.jpg",
      "adult": false,
      "overview": "Dora, a girl who has spent most of her life exploring the jungle with her parents, now must navigate her most dangerous adventure yet: high school. Always the explorer, Dora quickly finds herself leading Boots (her best friend, a monkey), Diego, and a rag tag group of teens on an adventure to save her parents and solve the impossible mystery behind a lost Inca civilization.",
      "release_date": "2019-08-08"
    },
    {
      "vote_count": 1852,
      "id": 301528,
      "video": false,
      "vote_average": 7.7,
      "title": "Toy Story 4",
      "popularity": 63.751,
      "poster_path": "\/w9kR8qbmQ01HwnvK4alvnQ2ca0L.jpg",
      "original_language": "en",
      "original_title": "Toy Story 4",
      "genre_ids": [
        12,
        16,
        35,
        10751
      ],
      "backdrop_path": "\/m67smI1IIMmYzCl9axvKNULVKLr.jpg",
      "adult": false,
      "overview": "Woody has always been confident about his place in the world and that his priority is taking care of his kid, whether that's Andy or Bonnie. But when Bonnie adds a reluctant new toy called \"Forky\" to her room, a road trip adventure alongside old and new friends will show Woody how big the world can be for a toy.",
      "release_date": "2019-06-19"
    },
    {
      "vote_count": 236,
      "id": 511987,
      "video": false,
      "vote_average": 5.9,
      "title": "Crawl",
      "popularity": 52.519,
      "poster_path": "\/mKxpYRIrCZLxZjNqpocJ2RdQW8v.jpg",
      "original_language": "en",
      "original_title": "Crawl",
      "genre_ids": [
        53,
        28,
        27
      ],
      "backdrop_path": "\/2cAce3oD0Hh7f5XxuXmNXa1WiuZ.jpg",
      "adult": false,
      "overview": "While struggling to save her father during a Category 5 hurricane, a young woman finds herself trapped inside a flooding house and fighting for her life against Florida\u2019s most savage and feared predators.",
      "release_date": "2019-07-11"
    },
    {
      "vote_count": 840,
      "id": 504608,
      "video": false,
      "vote_average": 7.5,
      "title": "Rocketman",
      "popularity": 51.301,
      "poster_path": "\/f4FF18ia7yTvHf2izNrHqBmgH8U.jpg",
      "original_language": "en",
      "original_title": "Rocketman",
      "genre_ids": [
        10402,
        18
      ],
      "backdrop_path": "\/oAr5bgf49vxga9etWoQpAeRMvhp.jpg",
      "adult": false,
      "overview": "The story of Elton John's life, from his years as a prodigy at the Royal Academy of Music through his influential and enduring musical partnership with Bernie Taupin.",
      "release_date": "2019-05-22"
    },
    {
      "vote_count": 30,
      "id": 454640,
      "video": false,
      "vote_average": 6.4,
      "title": "The Angry Birds Movie 2",
      "popularity": 50.929,
      "poster_path": "\/ebe8hJRCwdflNQbUjRrfmqtUiNi.jpg",
      "original_language": "en",
      "original_title": "The Angry Birds Movie 2",
      "genre_ids": [
        16,
        35,
        28,
        12,
        10751
      ],
      "backdrop_path": "\/k7sE3loFwuU2mqf7FbZBeE3rjBa.jpg",
      "adult": false,
      "overview": "The flightless birds and scheming green pigs take their beef to the next level.",
      "release_date": "2019-08-02"
    },
    {
      "vote_count": 1,
      "id": 568012,
      "video": false,
      "vote_average": 10,
      "title": "One Piece: Stampede",
      "popularity": 43.582,
      "poster_path": "\/tiqxe3c1uzVYCNhADeD5KyVtINP.jpg",
      "original_language": "ja",
      "original_title": "\u5287\u5834\u7248\u300eONE PIECE STAMPEDE\u300f\uff08\u30b9\u30bf\u30f3\u30d4\u30fc\u30c9\uff09",
      "genre_ids": [
        16,
        28,
        12
      ],
      "backdrop_path": "\/jAvDJ0ZAj8WTrCKKcQYnceALkJc.jpg",
      "adult": false,
      "overview": "The film celebrates the One Piece anime's 20th anniversary and will be the 14th film in the franchise.",
      "release_date": "2019-08-09"
    },
    {
      "vote_count": 1771,
      "id": 537915,
      "video": false,
      "vote_average": 5.9,
      "title": "After",
      "popularity": 42.404,
      "poster_path": "\/u3B2YKUjWABcxXZ6Nm9h10hLUbh.jpg",
      "original_language": "en",
      "original_title": "After",
      "genre_ids": [
        18,
        10749
      ],
      "backdrop_path": "\/997ToEZvF2Obp9zNZbY5ELVnmrW.jpg",
      "adult": false,
      "overview": "Tessa Young is a dedicated student, dutiful daughter and loyal girlfriend to her high school sweetheart. Entering her first semester of college, Tessa's guarded world opens up when she meets Hardin Scott, a mysterious and brooding rebel who makes her question all she thought she knew about herself -- and what she wants out of life.",
      "release_date": "2019-04-11"
    },
    {
      "vote_count": 54,
      "id": 522518,
      "video": false,
      "vote_average": 7.1,
      "title": "A Dog's Journey",
      "popularity": 41.174,
      "poster_path": "\/4pzN52wxBZ05EXBdoii1kqoIoD4.jpg",
      "original_language": "en",
      "original_title": "A Dog's Journey",
      "genre_ids": [
        10751,
        12,
        14
      ],
      "backdrop_path": "\/52bVQBX0szmltMe5pfcmpqYk1KX.jpg",
      "adult": false,
      "overview": "A dog finds the meaning of his own existence through the lives of the humans he meets.",
      "release_date": "2019-05-03"
    },
    {
      "vote_count": 330,
      "id": 412117,
      "video": false,
      "vote_average": 6.5,
      "title": "The Secret Life of Pets 2",
      "popularity": 39.371,
      "poster_path": "\/nYcaCNkB4EgVyvrXxxbklefDrGL.jpg",
      "original_language": "en",
      "original_title": "The Secret Life of Pets 2",
      "genre_ids": [
        12,
        16,
        35,
        10751
      ],
      "backdrop_path": "\/etaok7q2E5tV36oXe7GQzhUQ4fX.jpg",
      "adult": false,
      "overview": "Max the terrier must cope with some major life changes when his owner gets married and has a baby. When the family takes a trip to the countryside, nervous Max has numerous run-ins with canine-intolerant cows, hostile foxes and a scary turkey. Luckily for Max, he soon catches a break when he meets Rooster, a gruff farm dog who tries to cure the lovable pooch of his neuroses.",
      "release_date": "2019-05-24"
    },
    {
      "vote_count": 5,
      "id": 521777,
      "video": false,
      "vote_average": 6.3,
      "title": "Good Boys",
      "popularity": 39.25,
      "poster_path": "\/jIthqo2tQmW8TFN1fYpF8FmVL0o.jpg",
      "original_language": "en",
      "original_title": "Good Boys",
      "genre_ids": [
        35
      ],
      "backdrop_path": "\/6Xsz9KHQmCcIcj3CoWQq5eLtVoT.jpg",
      "adult": false,
      "overview": "A group of young boys on the cusp of becoming teenagers embark on an epic quest in the San Fernando Valley to fix their broken toy before their parents get home.",
      "release_date": "2019-07-18"
    },
    {
      "vote_count": 0,
      "id": 474350,
      "video": false,
      "vote_average": 0,
      "title": "It Chapter Two",
      "popularity": 38.228,
      "poster_path": "\/wF6SNPcUrTKFA4fOFfukm7zQ3ob.jpg",
      "original_language": "en",
      "original_title": "It Chapter Two",
      "genre_ids": [
        27
      ],
      "backdrop_path": "\/2V5RR4Ps1i4x7ifjjDvlmrSYzvL.jpg",
      "adult": false,
      "overview": "27 years after overcoming the malevolent supernatural entity Pennywise, the former members of the Losers' Club, who have grown up and moved away from Derry, are brought back together by a devastating phone call.",
      "release_date": "2019-09-05"
    },
    {
      "vote_count": 12,
      "id": 487680,
      "video": false,
      "vote_average": 5.8,
      "title": "The Kitchen",
      "popularity": 35.27,
      "poster_path": "\/rccY9IoMss5WyrxlvWgbNydTytT.jpg",
      "original_language": "en",
      "original_title": "The Kitchen",
      "genre_ids": [
        80,
        18
      ],
      "backdrop_path": "\/tyz12czyQ5UsVAHEFWD7bpdYsI7.jpg",
      "adult": false,
      "overview": "An Irish mob story set in 1970s Hell's Kitchen. After the mobsters are sentenced to jail, their wives take their place \u2014 and do as good of a job, if not better.",
      "release_date": "2019-08-08"
    },
    {
      "vote_count": 10,
      "id": 441183,
      "video": false,
      "vote_average": 6.9,
      "title": "Light of My Life",
      "popularity": 34.078,
      "poster_path": "\/3gLH2WSY9IykYaiqDHkCCGbY7nw.jpg",
      "original_language": "en",
      "original_title": "Light of My Life",
      "genre_ids": [
        18
      ],
      "backdrop_path": "\/d5UjzgdCoI1jNcvTU9pzgSGiEnC.jpg",
      "adult": false,
      "overview": "Parent and child journey through the outskirts of society a decade after a pandemic has wiped out half the world's population. As a father struggles to protect his child, their bond\u2014and the character of humanity\u2014is tested.",
      "release_date": "2019-08-09"
    },
    {
      "vote_count": 23,
      "id": 534259,
      "video": false,
      "vote_average": 8.8,
      "title": "Blinded by the Light",
      "popularity": 33.93,
      "poster_path": "\/1KsKNrgs7D3zPh9FT9f6MD3ampH.jpg",
      "original_language": "en",
      "original_title": "Blinded by the Light",
      "genre_ids": [
        18,
        35,
        10402
      ],
      "backdrop_path": "\/v7o0sYZGtaAHWi81B6LvKUKGAXa.jpg",
      "adult": false,
      "overview": "In 1987, during the austere days of Thatcher\u2019s Britain, a teenager learns to live life, understand his family, and find his own voice through the music of Bruce Springsteen.",
      "release_date": "2019-08-09"
    },
    {
      "vote_count": 337,
      "id": 515195,
      "video": false,
      "vote_average": 6.7,
      "title": "Yesterday",
      "popularity": 32.44,
      "poster_path": "\/1rjaRIAqFPQNnMtqSMLtg0VEABi.jpg",
      "original_language": "en",
      "original_title": "Yesterday",
      "genre_ids": [
        35,
        10402,
        10749
      ],
      "backdrop_path": "\/t9xAqZc37OgVkojyQwT3UCanZJk.jpg",
      "adult": false,
      "overview": "Jack Malik is a struggling singer-songwriter in an English seaside town whose dreams of fame are rapidly fading, despite the fierce devotion and support of his childhood best friend, Ellie. After a freak bus accident during a mysterious global blackout, Jack wakes up to discover that he's the only person on Earth who can remember The Beatles.",
      "release_date": "2019-06-27"
    }
  ],
  "page": 1,
  "total_results": 431,
  "dates": {
    "maximum": "2019-09-05",
    "minimum": "2019-08-13"
  },
  "total_pages": 22
}